{
    "pagination": {
        "pageSize": 50,
        "currentPage": 1,
        "totalItems": 671,
        "totalPages": 14
    },
    "resourceBaseUri": "http://reports.sem-o.com/documents",
    "items": [
        {
            "_id": "61a402ea9620d968a41efe14",
            "Date": "2021-11-28",
            "PublishTime": "2021-11-28T22:00:04",
            "DateRetention": "2021-11-28",
            "DPuG_ID": "BM-095",
            "ReportName": "Balancing and Imbalance Market Cost View",
            "Group": [
                "Settlement Data"
            ],
            "Dynamic": true,
            "ResourceName": "PUB_30MinImbalCost_202111282100.xml"
        },
        {
            "_id": "61a3fbe29620d95a544d7da4",
            "Date": "2021-11-28",
            "PublishTime": "2021-11-28T21:30:03",
            "DateRetention": "2021-11-28",
            "DPuG_ID": "BM-095",
            "ReportName": "Balancing and Imbalance Market Cost View",
            "Group": [
                "Settlement Data"
            ],
            "Dynamic": true,
            "ResourceName": "PUB_30MinImbalCost_202111282030.xml"
        },
        {
            "_id": "61a3f4da9620d94c9875d404",
            "Date": "2021-11-28",
            "PublishTime": "2021-11-28T21:00:06",
            "DateRetention": "2021-11-28",
            "DPuG_ID": "BM-095",
            "ReportName": "Balancing and Imbalance Market Cost View",
            "Group": [
                "Settlement Data"
            ],
            "Dynamic": true,
            "ResourceName": "PUB_30MinImbalCost_202111282000.xml"
        },
        {
            "_id": "61a3edd29620d93e5d474544",
            "Date": "2021-11-28",
            "PublishTime": "2021-11-28T20:30:03",
            "DateRetention": "2021-11-28",
            "DPuG_ID": "BM-095",
            "ReportName": "Balancing and Imbalance Market Cost View",
            "Group": [
                "Settlement Data"
            ],
            "Dynamic": true,
            "ResourceName": "PUB_30MinImbalCost_202111281930.xml"
        },
        {
            "_id": "61a3e6ca9620d930984ddd14",
            "Date": "2021-11-28",
            "PublishTime": "2021-11-28T20:00:04",
            "DateRetention": "2021-11-28",
            "DPuG_ID": "BM-095",
            "ReportName": "Balancing and Imbalance Market Cost View",
            "Group": [
                "Settlement Data"
            ],
            "Dynamic": true,
            "ResourceName": "PUB_30MinImbalCost_202111281900.xml"
        },
        {
            "_id": "61a3dfc19620d9224422d8e4",
            "Date": "2021-11-28",
            "PublishTime": "2021-11-28T19:30:05",
            "DateRetention": "2021-11-28",
            "DPuG_ID": "BM-095",
            "ReportName": "Balancing and Imbalance Market Cost View",
            "Group": [
                "Settlement Data"
            ],
            "Dynamic": true,
            "ResourceName": "PUB_30MinImbalCost_202111281830.xml"
        },
        {
            "_id": "61a3d8ba9620d91439049314",
            "Date": "2021-11-28",
            "PublishTime": "2021-11-28T19:00:04",
            "DateRetention": "2021-11-28",
            "DPuG_ID": "BM-095",
            "ReportName": "Balancing and Imbalance Market Cost View",
            "Group": [
                "Settlement Data"
            ],
            "Dynamic": true,
            "ResourceName": "PUB_30MinImbalCost_202111281800.xml"
        },
        {
            "_id": "61a3d1b29620d905b9236a44",
            "Date": "2021-11-28",
            "PublishTime": "2021-11-28T18:30:05",
            "DateRetention": "2021-11-28",
            "DPuG_ID": "BM-095",
            "ReportName": "Balancing and Imbalance Market Cost View",
            "Group": [
                "Settlement Data"
            ],
            "Dynamic": true,
            "ResourceName": "PUB_30MinImbalCost_202111281730.xml"
        },
        {
            "_id": "61a3caab9620d9761f36fd3d",
            "Date": "2021-11-28",
            "PublishTime": "2021-11-28T18:00:05",
            "DateRetention": "2021-11-28",
            "DPuG_ID": "BM-095",
            "ReportName": "Balancing and Imbalance Market Cost View",
            "Group": [
                "Settlement Data"
            ],
            "Dynamic": true,
            "ResourceName": "PUB_30MinImbalCost_202111281700.xml"
        },
        {
            "_id": "61a3c3a29620d96789037974",
            "Date": "2021-11-28",
            "PublishTime": "2021-11-28T17:30:05",
            "DateRetention": "2021-11-28",
            "DPuG_ID": "BM-095",
            "ReportName": "Balancing and Imbalance Market Cost View",
            "Group": [
                "Settlement Data"
            ],
            "Dynamic": true,
            "ResourceName": "PUB_30MinImbalCost_202111281630.xml"
        },
        {
            "_id": "61a3bc9b9620d959b168c104",
            "Date": "2021-11-28",
            "PublishTime": "2021-11-28T17:00:04",
            "DateRetention": "2021-11-28",
            "DPuG_ID": "BM-095",
            "ReportName": "Balancing and Imbalance Market Cost View",
            "Group": [
                "Settlement Data"
            ],
            "Dynamic": true,
            "ResourceName": "PUB_30MinImbalCost_202111281600.xml"
        },
        {
            "_id": "61a3b5929620d94b70024e45",
            "Date": "2021-11-28",
            "PublishTime": "2021-11-28T16:30:04",
            "DateRetention": "2021-11-28",
            "DPuG_ID": "BM-095",
            "ReportName": "Balancing and Imbalance Market Cost View",
            "Group": [
                "Settlement Data"
            ],
            "Dynamic": true,
            "ResourceName": "PUB_30MinImbalCost_202111281530.xml"
        },
        {
            "_id": "61a3ae8a9620d93d852c8924",
            "Date": "2021-11-28",
            "PublishTime": "2021-11-28T16:00:05",
            "DateRetention": "2021-11-28",
            "DPuG_ID": "BM-095",
            "ReportName": "Balancing and Imbalance Market Cost View",
            "Group": [
                "Settlement Data"
            ],
            "Dynamic": true,
            "ResourceName": "PUB_30MinImbalCost_202111281500.xml"
        },
        {
            "_id": "61a3a7829620d92f1c0f0ef4",
            "Date": "2021-11-28",
            "PublishTime": "2021-11-28T15:30:06",
            "DateRetention": "2021-11-28",
            "DPuG_ID": "BM-095",
            "ReportName": "Balancing and Imbalance Market Cost View",
            "Group": [
                "Settlement Data"
            ],
            "Dynamic": true,
            "ResourceName": "PUB_30MinImbalCost_202111281430.xml"
        },
        {
            "_id": "61a3a07a9620d9212a2b18e4",
            "Date": "2021-11-28",
            "PublishTime": "2021-11-28T15:00:05",
            "DateRetention": "2021-11-28",
            "DPuG_ID": "BM-095",
            "ReportName": "Balancing and Imbalance Market Cost View",
            "Group": [
                "Settlement Data"
            ],
            "Dynamic": true,
            "ResourceName": "PUB_30MinImbalCost_202111281400.xml"
        },
        {
            "_id": "61a399729620d912f5329594",
            "Date": "2021-11-28",
            "PublishTime": "2021-11-28T14:30:04",
            "DateRetention": "2021-11-28",
            "DPuG_ID": "BM-095",
            "ReportName": "Balancing and Imbalance Market Cost View",
            "Group": [
                "Settlement Data"
            ],
            "Dynamic": true,
            "ResourceName": "PUB_30MinImbalCost_202111281330.xml"
        },
        {
            "_id": "61a3926a9620d904c2730cc4",
            "Date": "2021-11-28",
            "PublishTime": "2021-11-28T14:00:07",
            "DateRetention": "2021-11-28",
            "DPuG_ID": "BM-095",
            "ReportName": "Balancing and Imbalance Market Cost View",
            "Group": [
                "Settlement Data"
            ],
            "Dynamic": true,
            "ResourceName": "PUB_30MinImbalCost_202111281300.xml"
        },
        {
            "_id": "61a38b629620d974b3382844",
            "Date": "2021-11-28",
            "PublishTime": "2021-11-28T13:30:03",
            "DateRetention": "2021-11-28",
            "DPuG_ID": "BM-095",
            "ReportName": "Balancing and Imbalance Market Cost View",
            "Group": [
                "Settlement Data"
            ],
            "Dynamic": true,
            "ResourceName": "PUB_30MinImbalCost_202111281230.xml"
        },
        {
            "_id": "61a3845a9620d96710790264",
            "Date": "2021-11-28",
            "PublishTime": "2021-11-28T13:00:04",
            "DateRetention": "2021-11-28",
            "DPuG_ID": "BM-095",
            "ReportName": "Balancing and Imbalance Market Cost View",
            "Group": [
                "Settlement Data"
            ],
            "Dynamic": true,
            "ResourceName": "PUB_30MinImbalCost_202111281200.xml"
        },
        {
            "_id": "61a37d529620d958b00e1184",
            "Date": "2021-11-28",
            "PublishTime": "2021-11-28T12:30:04",
            "DateRetention": "2021-11-28",
            "DPuG_ID": "BM-095",
            "ReportName": "Balancing and Imbalance Market Cost View",
            "Group": [
                "Settlement Data"
            ],
            "Dynamic": true,
            "ResourceName": "PUB_30MinImbalCost_202111281130.xml"
        },
        {
            "_id": "61a3764b9620d94a9c48a3e1",
            "Date": "2021-11-28",
            "PublishTime": "2021-11-28T12:00:03",
            "DateRetention": "2021-11-28",
            "DPuG_ID": "BM-095",
            "ReportName": "Balancing and Imbalance Market Cost View",
            "Group": [
                "Settlement Data"
            ],
            "Dynamic": true,
            "ResourceName": "PUB_30MinImbalCost_202111281100.xml"
        },
        {
            "_id": "61a36f439620d93c3348e745",
            "Date": "2021-11-28",
            "PublishTime": "2021-11-28T11:30:03",
            "DateRetention": "2021-11-28",
            "DPuG_ID": "BM-095",
            "ReportName": "Balancing and Imbalance Market Cost View",
            "Group": [
                "Settlement Data"
            ],
            "Dynamic": true,
            "ResourceName": "PUB_30MinImbalCost_202111281030.xml"
        },
        {
            "_id": "61a3683a9620d92e1c19a304",
            "Date": "2021-11-28",
            "PublishTime": "2021-11-28T11:00:06",
            "DateRetention": "2021-11-28",
            "DPuG_ID": "BM-095",
            "ReportName": "Balancing and Imbalance Market Cost View",
            "Group": [
                "Settlement Data"
            ],
            "Dynamic": true,
            "ResourceName": "PUB_30MinImbalCost_202111281000.xml"
        },
        {
            "_id": "61a361329620d91faf2e3234",
            "Date": "2021-11-28",
            "PublishTime": "2021-11-28T10:30:06",
            "DateRetention": "2021-11-28",
            "DPuG_ID": "BM-095",
            "ReportName": "Balancing and Imbalance Market Cost View",
            "Group": [
                "Settlement Data"
            ],
            "Dynamic": true,
            "ResourceName": "PUB_30MinImbalCost_202111280930.xml"
        },
        {
            "_id": "61a356a69620d90aaf2c2fe4",
            "Date": "2021-11-28",
            "PublishTime": "2021-11-28T10:00:05",
            "DateRetention": "2021-11-28",
            "DPuG_ID": "BM-095",
            "ReportName": "Balancing and Imbalance Market Cost View",
            "Group": [
                "Settlement Data"
            ],
            "Dynamic": true,
            "ResourceName": "PUB_30MinImbalCost_202111280900.xml"
        },
        {
            "_id": "61a353229620d903162701e4",
            "Date": "2021-11-28",
            "PublishTime": "2021-11-28T09:30:05",
            "DateRetention": "2021-11-28",
            "DPuG_ID": "BM-095",
            "ReportName": "Balancing and Imbalance Market Cost View",
            "Group": [
                "Settlement Data"
            ],
            "Dynamic": true,
            "ResourceName": "PUB_30MinImbalCost_202111280830.xml"
        },
        {
            "_id": "61a34c1a9620d9739910df54",
            "Date": "2021-11-28",
            "PublishTime": "2021-11-28T09:00:04",
            "DateRetention": "2021-11-28",
            "DPuG_ID": "BM-095",
            "ReportName": "Balancing and Imbalance Market Cost View",
            "Group": [
                "Settlement Data"
            ],
            "Dynamic": true,
            "ResourceName": "PUB_30MinImbalCost_202111280800.xml"
        },
        {
            "_id": "61a345129620d9654a738b43",
            "Date": "2021-11-28",
            "PublishTime": "2021-11-28T08:30:05",
            "DateRetention": "2021-11-28",
            "DPuG_ID": "BM-095",
            "ReportName": "Balancing and Imbalance Market Cost View",
            "Group": [
                "Settlement Data"
            ],
            "Dynamic": true,
            "ResourceName": "PUB_30MinImbalCost_202111280730.xml"
        },
        {
            "_id": "61a33e0a9620d9574a08da04",
            "Date": "2021-11-28",
            "PublishTime": "2021-11-28T08:00:05",
            "DateRetention": "2021-11-28",
            "DPuG_ID": "BM-095",
            "ReportName": "Balancing and Imbalance Market Cost View",
            "Group": [
                "Settlement Data"
            ],
            "Dynamic": true,
            "ResourceName": "PUB_30MinImbalCost_202111280700.xml"
        },
        {
            "_id": "61a337029620d948f438a1e4",
            "Date": "2021-11-28",
            "PublishTime": "2021-11-28T07:30:04",
            "DateRetention": "2021-11-28",
            "DPuG_ID": "BM-095",
            "ReportName": "Balancing and Imbalance Market Cost View",
            "Group": [
                "Settlement Data"
            ],
            "Dynamic": true,
            "ResourceName": "PUB_30MinImbalCost_202111280630.xml"
        },
        {
            "_id": "61a32ffa9620d93b03223344",
            "Date": "2021-11-28",
            "PublishTime": "2021-11-28T07:00:04",
            "DateRetention": "2021-11-28",
            "DPuG_ID": "BM-095",
            "ReportName": "Balancing and Imbalance Market Cost View",
            "Group": [
                "Settlement Data"
            ],
            "Dynamic": true,
            "ResourceName": "PUB_30MinImbalCost_202111280600.xml"
        },
        {
            "_id": "61a328f29620d92c8321a784",
            "Date": "2021-11-28",
            "PublishTime": "2021-11-28T06:30:05",
            "DateRetention": "2021-11-28",
            "DPuG_ID": "BM-095",
            "ReportName": "Balancing and Imbalance Market Cost View",
            "Group": [
                "Settlement Data"
            ],
            "Dynamic": true,
            "ResourceName": "PUB_30MinImbalCost_202111280530.xml"
        },
        {
            "_id": "61a321eb9620d91e9b599006",
            "Date": "2021-11-28",
            "PublishTime": "2021-11-28T06:00:03",
            "DateRetention": "2021-11-28",
            "DPuG_ID": "BM-095",
            "ReportName": "Balancing and Imbalance Market Cost View",
            "Group": [
                "Settlement Data"
            ],
            "Dynamic": true,
            "ResourceName": "PUB_30MinImbalCost_202111280500.xml"
        },
        {
            "_id": "61a31ae29620d91038065074",
            "Date": "2021-11-28",
            "PublishTime": "2021-11-28T05:30:04",
            "DateRetention": "2021-11-28",
            "DPuG_ID": "BM-095",
            "ReportName": "Balancing and Imbalance Market Cost View",
            "Group": [
                "Settlement Data"
            ],
            "Dynamic": true,
            "ResourceName": "PUB_30MinImbalCost_202111280430.xml"
        },
        {
            "_id": "61a313da9620d902121cca64",
            "Date": "2021-11-28",
            "PublishTime": "2021-11-28T05:00:05",
            "DateRetention": "2021-11-28",
            "DPuG_ID": "BM-095",
            "ReportName": "Balancing and Imbalance Market Cost View",
            "Group": [
                "Settlement Data"
            ],
            "Dynamic": true,
            "ResourceName": "PUB_30MinImbalCost_202111280400.xml"
        },
        {
            "_id": "61a30cd29620d9720d79ae64",
            "Date": "2021-11-28",
            "PublishTime": "2021-11-28T04:30:05",
            "DateRetention": "2021-11-28",
            "DPuG_ID": "BM-095",
            "ReportName": "Balancing and Imbalance Market Cost View",
            "Group": [
                "Settlement Data"
            ],
            "Dynamic": true,
            "ResourceName": "PUB_30MinImbalCost_202111280330.xml"
        },
        {
            "_id": "61a305ca9620d9642c781f44",
            "Date": "2021-11-28",
            "PublishTime": "2021-11-28T04:00:04",
            "DateRetention": "2021-11-28",
            "DPuG_ID": "BM-095",
            "ReportName": "Balancing and Imbalance Market Cost View",
            "Group": [
                "Settlement Data"
            ],
            "Dynamic": true,
            "ResourceName": "PUB_30MinImbalCost_202111280300.xml"
        },
        {
            "_id": "61a2fec29620d95515319ae4",
            "Date": "2021-11-28",
            "PublishTime": "2021-11-28T03:30:03",
            "DateRetention": "2021-11-28",
            "DPuG_ID": "BM-095",
            "ReportName": "Balancing and Imbalance Market Cost View",
            "Group": [
                "Settlement Data"
            ],
            "Dynamic": true,
            "ResourceName": "PUB_30MinImbalCost_202111280230.xml"
        },
        {
            "_id": "61a2f7ba9620d9472e106fc4",
            "Date": "2021-11-28",
            "PublishTime": "2021-11-28T03:00:04",
            "DateRetention": "2021-11-28",
            "DPuG_ID": "BM-095",
            "ReportName": "Balancing and Imbalance Market Cost View",
            "Group": [
                "Settlement Data"
            ],
            "Dynamic": true,
            "ResourceName": "PUB_30MinImbalCost_202111280200.xml"
        },
        {
            "_id": "61a2f0b29620d938d5380cd4",
            "Date": "2021-11-28",
            "PublishTime": "2021-11-28T02:30:05",
            "DateRetention": "2021-11-28",
            "DPuG_ID": "BM-095",
            "ReportName": "Balancing and Imbalance Market Cost View",
            "Group": [
                "Settlement Data"
            ],
            "Dynamic": true,
            "ResourceName": "PUB_30MinImbalCost_202111280130.xml"
        },
        {
            "_id": "61a2e9aa9620d92af05eb804",
            "Date": "2021-11-28",
            "PublishTime": "2021-11-28T02:00:04",
            "DateRetention": "2021-11-28",
            "DPuG_ID": "BM-095",
            "ReportName": "Balancing and Imbalance Market Cost View",
            "Group": [
                "Settlement Data"
            ],
            "Dynamic": true,
            "ResourceName": "PUB_30MinImbalCost_202111280100.xml"
        },
        {
            "_id": "61a2e2a29620d91cb21aad24",
            "Date": "2021-11-28",
            "PublishTime": "2021-11-28T01:30:06",
            "DateRetention": "2021-11-28",
            "DPuG_ID": "BM-095",
            "ReportName": "Balancing and Imbalance Market Cost View",
            "Group": [
                "Settlement Data"
            ],
            "Dynamic": true,
            "ResourceName": "PUB_30MinImbalCost_202111280030.xml"
        },
        {
            "_id": "61a2db999620d90eed4dbdc4",
            "Date": "2021-11-28",
            "PublishTime": "2021-11-28T01:00:05",
            "DateRetention": "2021-11-28",
            "DPuG_ID": "BM-095",
            "ReportName": "Balancing and Imbalance Market Cost View",
            "Group": [
                "Settlement Data"
            ],
            "Dynamic": true,
            "ResourceName": "PUB_30MinImbalCost_202111280000.xml"
        },
        {
            "_id": "61a2d4929620d97ebe17b274",
            "Date": "2021-11-28",
            "PublishTime": "2021-11-28T00:30:08",
            "DateRetention": "2021-11-28",
            "DPuG_ID": "BM-095",
            "ReportName": "Balancing and Imbalance Market Cost View",
            "Group": [
                "Settlement Data"
            ],
            "Dynamic": true,
            "ResourceName": "PUB_30MinImbalCost_202111272330.xml"
        },
        {
            "_id": "61a2cd8a9620d970b46e25f4",
            "Date": "2021-11-28",
            "PublishTime": "2021-11-28T00:00:05",
            "DateRetention": "2021-11-28",
            "DPuG_ID": "BM-095",
            "ReportName": "Balancing and Imbalance Market Cost View",
            "Group": [
                "Settlement Data"
            ],
            "Dynamic": true,
            "ResourceName": "PUB_30MinImbalCost_202111272300.xml"
        },
        {
            "_id": "61a2c6829620d961316cc4d4",
            "Date": "2021-11-27",
            "PublishTime": "2021-11-27T23:30:06",
            "DateRetention": "2021-11-27",
            "DPuG_ID": "BM-095",
            "ReportName": "Balancing and Imbalance Market Cost View",
            "Group": [
                "Settlement Data"
            ],
            "Dynamic": true,
            "ResourceName": "PUB_30MinImbalCost_202111272230.xml"
        },
        {
            "_id": "61a2bf7a9620d9534b3a1224",
            "Date": "2021-11-27",
            "PublishTime": "2021-11-27T23:00:04",
            "DateRetention": "2021-11-27",
            "DPuG_ID": "BM-095",
            "ReportName": "Balancing and Imbalance Market Cost View",
            "Group": [
                "Settlement Data"
            ],
            "Dynamic": true,
            "ResourceName": "PUB_30MinImbalCost_202111272200.xml"
        },
        {
            "_id": "61a2b8729620d9450044568b",
            "Date": "2021-11-27",
            "PublishTime": "2021-11-27T22:30:04",
            "DateRetention": "2021-11-27",
            "DPuG_ID": "BM-095",
            "ReportName": "Balancing and Imbalance Market Cost View",
            "Group": [
                "Settlement Data"
            ],
            "Dynamic": true,
            "ResourceName": "PUB_30MinImbalCost_202111272130.xml"
        },
        {
            "_id": "61a2b16a9620d93707306b34",
            "Date": "2021-11-27",
            "PublishTime": "2021-11-27T22:00:05",
            "DateRetention": "2021-11-27",
            "DPuG_ID": "BM-095",
            "ReportName": "Balancing and Imbalance Market Cost View",
            "Group": [
                "Settlement Data"
            ],
            "Dynamic": true,
            "ResourceName": "PUB_30MinImbalCost_202111272100.xml"
        },
        {
            "_id": "61a2aa629620d928b86abb44",
            "Date": "2021-11-27",
            "PublishTime": "2021-11-27T21:30:05",
            "DateRetention": "2021-11-27",
            "DPuG_ID": "BM-095",
            "ReportName": "Balancing and Imbalance Market Cost View",
            "Group": [
                "Settlement Data"
            ],
            "Dynamic": true,
            "ResourceName": "PUB_30MinImbalCost_202111272030.xml"
        }
    ]
}